…
#>         5 0.66 0.67 0.79 0.65
#> 
#> , , variable = b_Trt1
#> 
#>          chain
#> iteration     1     2      3     4
#>         1 -0.54 -0.14  0.023 -0.23
#>         2 -0.62 -0.23 -0.026 -0.32
#>         3 -0.69 -0.10 -0.039 -0.33
#>         4  0.25 -0.35 -0.040 -0.34
#>         5  0.20 -0.56 -0.444 -0.29
#> 
#> # ... with 995 more iterations, and 64 more variables
posterior::summarize_draws(draws_fit)
#> # A tibble: 68 × 10
#>    variable    mean  median     sd    mad      q5    q95  rhat ess_bulk ess_tail
#>    <chr>      <dbl>   <dbl>  <dbl>  <dbl>   <dbl>  <dbl> <dbl>    <dbl>    <dbl>
#>  1 b_Inter…  1.76    1.76   0.120  0.116   1.56   1.95    1.00     670.    1117.
#>  2 b_zAge    0.0863  0.0879 0.0900 0.0878 -0.0646 0.234   1.00     718.    1345.
#>  3 b_zBase   0.699   0.698  0.123  0.118   0.494  0.905   1.00     724.    1343.
#>  4 b_Trt1   -0.256  -0.253  0.167  0.165  -0.533  0.0169  1.00     747.    1091.
#>  5 b_zBase…  0.0569  0.0537 0.168  0.166  -0.214  0.335   1.00     916.    1551.
#>  6 sd_pati…  0.583   0.577  0.0714 0.0721  0.477  0.710   1.01     715.    1523.
#>  7 Interce…  1.62    1.62   0.0825 0.0803  1.49   1.76    1.00     675.    1254.
#>  8 r_patie… -0.0286 -0.0254 0.273  0.264  -0.481  0.419   1.00    1993.    2433.
#>  9 r_patie… -0.0216 -0.0189 0.277  0.280  -0.481  0.427   1.00    1594.    2398.
#> 10 r_patie… -0.0560 -0.0491 0.301  0.302  -0.564  0.427   1.00    2211.    2340.
#> # ℹ 58 more rows
…
